6 MODELO PROPHET | Series de tiempo - Remesas
…
            Series de tiempo - Remesas

6 MODELO PROPHET

Una propuesta reciente es el modelo Prophet, disponible a través del paquete fable.prophet. Este modelo fue introducido por Facebook (S. J. Taylor & Letham, 2018), originalmente para pronosticar datos diarios con estacionalidad semanal y anual, además de efectos de vacaciones. Más tarde se amplió para cubrir más tipos de datos estacionales. Funciona mejor con series temporales que tienen una fuerte estacionalidad y varias temporadas de datos históricos.

## # A tibble: 649 × 2
##    Fecha                 TRM
##    <dttm>              <dbl>
##  1 2023-01-01 00:00:00 4766.
##  2 2023-01-02 00:00:00 4766.
##  3 2023-01-03 00:00:00 4766.
##  4 2023-01-04 00:00:00 4842.
##  5 2023-01-05 00:00:00 4924 
##  6 2023-01-06 00:00:00 4990.
##  7 2023-01-07 00:00:00 4886.
##  8 2023-01-08 00:00:00 4886.
##  9 2023-01-09 00:00:00 4886.
## 10 2023-01-10 00:00:00 4886.
## # ℹ 639 more rows
…
